3 장 Tree-based 모형 | R에 의한 통계자료분석 실습
…
3.1 Decision tree 모형

3.1.1 Regression tree 모형

연속형 반응변수에 대한 tree 모형을 regression tree 모형이라고 한다.
Regression tree 모형에 대한 예제 자료로 패키지 ISLR에 있는 데이터 프레임 Hitters를 사용해 보자.
Hitters는 MLB 1986~87 시즌 322명 선수의 연봉에 대한 자료이다.

> data(Hitters, package="ISLR")

> library(tidyverse)
> Hitters %>% as_tibble() %>% print(n = 5)
# A tibble: 322 × 20
  AtBat  Hits HmRun  Runs   RBI Walks Years CAtBat CHits CHmRun CRuns  CRBI
  <int> <int> <int> <int> <int> <int> <int>  <int> <int>  <int> <int> <int>
1   293    66     1    30    29    14     1    293    66      1    30    29
2   315    81     7    24    38    39    14   3449   835     69   321   414
3   479   130    18    66    72    76     3   1624   457     63   224   266
4   496   141    20    65    78    37    11   5628  1575    225   828   838
5   321    87    10    39    42    30     2    396   101     12    48    46
# … with 317 more rows, and 8 more variables: CWalks <int>, League <fct>,
#   Division <fct>, PutOuts <int>, Assists <int>, Errors <int>, Salary <dbl>,
#   NewLeague <fct>
# ℹ Use `print(n = ...)` to see more rows, and `colnames()` to see all variable names
…
