1 장 선형회귀모형 | R에 의한 통계자료분석 실습
…
변수 Murder를 반응변수로, 나머지 7개 변수를 설명변수로 하는 다중회귀모형을 설정해 보자. 회귀분석을 원활하게 수행하기 위해서는 자료가 행렬이 아닌 데이터 프레임의 형태로 입력되어 있어야 한다. 행렬 state.x77을 데이터 프레임으로 변환하면서, 빈칸이 있는 변수 이름을 수정하고 반응변수를 마지막 변수로 이동시키자.

> library(tidyverse)
> states <- as_tibble(state.x77) %>% 
+   rename(Life_Exp = `Life Exp`, HS_Grad = `HS Grad`) %>% 
+   relocate(Murder, .after = last_col()) %>% 
+   print(n = 3)
# A tibble: 50 × 8
  Population Income Illiteracy Life_Exp HS_Grad Frost   Area Murder
       <dbl>  <dbl>      <dbl>    <dbl>   <dbl> <dbl>  <dbl>  <dbl>
1       3615   3624        2.1     69.0    41.3    20  50708   15.1
2        365   6315        1.5     69.3    66.7   152 566432   11.3
3       2212   4530        1.8     70.6    58.1    15 113417    7.8
# … with 47 more rows
# ℹ Use `print(n = ...)` to see more rows
…
